Why equity_26.10.22
…
why_de_df<- group_by(data_fiji_why_de) %>%
             mutate(group_size = n()) %>%
             group_by(Why_de_cat_4_fact, Distr_Eq_Impact_cat) %>%
             summarise(perc = n()/max(group_size))

## `summarise()` has grouped output by 'Why_de_cat_4_fact'. You can override using
## the `.groups` argument.

why_de_df

## # A tibble: 40 x 3
## # Groups:   Why_de_cat_4_fact [22]
##    Why_de_cat_4_fact             Distr_Eq_Impact_cat    perc
##    <fct>                         <fct>                 <dbl>
##  1 Other                         1                   0.00781
##  2 Other                         2                   0.00781
##  3 Other                         3                   0.0312 
##  4 Other                         4                   0.0312 
##  5 Other                         5                   0.00781
##  6 Good management quality       5                   0.00781
##  7 Poor management quality       1                   0.0234 
##  8 Poor management quality       2                   0.0156 
##  9 Transparency & accountability 5                   0.00781
## 10 Income benefit                5                   0.0156 
## # ... with 30 more rows
…
figure= 700x500

why_de_df<-data_fiji_why_de %>%
             mutate(group_size = n()) %>%
             group_by(Why_de_cat_4_group) %>%
             summarise(perc = (n()/max(group_size))*100)

why_de_df

## # A tibble: 22 x 2
##    Why_de_cat_4_group             perc
##    <fct>                         <dbl>
##  1 Poor compliance               6.25 
##  2 Poor management quality       3.91 
##  3 Poor participation            0.781
##  4 Reduced resource access women 3.91 
##  5 Reduced resource access       3.12 
##  6 Resource non-sustainability   0.781
##  7 Costs                         0.781
##  8 Distribution inequality       3.91 
##  9 Other                         8.59 
## 10 Good Compliance               2.34 
## # ... with 12 more rows

Difference between women and men

why_de_df_gendif_perc<- group_by(data_fiji_why_de , Gender) %>%# here we calculate the percentage of women of all women  who mentioned X category (women #respondents are 100%, and the same for men)
             mutate(group_size = n()) %>%
             group_by(Gender, Why_de_cat_4_group) %>%
             summarise(perc = n()/max(group_size))

## `summarise()` has grouped output by 'Gender'. You can override using the
## `.groups` argument.

why_de_df_gendif_perc

## # A tibble: 35 x 3
## # Groups:   Gender [2]
##    Gender Why_de_cat_4_group              perc
##    <chr>  <fct>                          <dbl>
##  1 f      Poor compliance               0.0758
##  2 f      Poor management quality       0.0303
##  3 f      Poor participation            0.0152
##  4 f      Reduced resource access women 0.0455
##  5 f      Reduced resource access       0.0455
##  6 f      Costs                         0.0152
##  7 f      Distribution inequality       0.0303
##  8 f      Other                         0.106 
##  9 f      Good Compliance               0.0152
## 10 f      Food benefit                  0.0303
## # ... with 25 more rows
…
why_de_df_gendif_perc2<-data_fiji_why_de %>%
             mutate(group_size = n()) %>%
             group_by(Gender, Why_de_cat_4_group) %>%
             summarise(perc = n()/max(group_size))

## `summarise()` has grouped output by 'Gender'. You can override using the
## `.groups` argument.

why_de_df_gendif_perc2

## # A tibble: 35 x 3
## # Groups:   Gender [2]
##    Gender Why_de_cat_4_group               perc
##    <chr>  <fct>                           <dbl>
##  1 f      Poor compliance               0.0391 
##  2 f      Poor management quality       0.0156 
##  3 f      Poor participation            0.00781
##  4 f      Reduced resource access women 0.0234 
##  5 f      Reduced resource access       0.0234 
##  6 f      Costs                         0.00781
##  7 f      Distribution inequality       0.0156 
##  8 f      Other                         0.0547 
##  9 f      Good Compliance               0.00781
## 10 f      Food benefit                  0.0156 
## # ... with 25 more rows
…
why_pe_df_gen<- group_by(data_fiji_why_pe, Gender) %>%
             mutate(group_size = n()) %>%
             group_by(Gender,Why_PJ3_fact) %>%
             summarise(perc = n()/max(group_size))

## `summarise()` has grouped output by 'Gender'. You can override using the
## `.groups` argument.

why_pe_df_gen

## # A tibble: 45 x 3
## # Groups:   Gender [2]
##    Gender Why_PJ3_fact                  perc
##    <chr>  <fct>                        <dbl>
##  1 f      Poor participation          0.0843
##  2 f      Participation               0.145 
##  3 f      Other                       0.0361
##  4 f      Poor management quality     0.0602
##  5 f      Income benefit              0.0241
##  6 f      Cultural benefit            0.0241
##  7 f      Resource sustainability     0.0482
##  8 f      Leaders respected & trusted 0.0241
##  9 f      Interpersonal treatment     0.0120
## 10 f      leaders decision-maker      0.0241
## # ... with 35 more rows
…
why_pe_df_gen2<-data_fiji_why_pe %>%
             mutate(group_size = n()) %>%
             group_by(Gender, Why_PJ3_fact) %>%
             summarise(perc = (n()/max(group_size))*100)

## `summarise()` has grouped output by 'Gender'. You can override using the
## `.groups` argument.

why_pe_df_gen2

## # A tibble: 45 x 3
## # Groups:   Gender [2]
##    Gender Why_PJ3_fact                 perc
##    <chr>  <fct>                       <dbl>
##  1 f      Poor participation          4.32 
##  2 f      Participation               7.41 
##  3 f      Other                       1.85 
##  4 f      Poor management quality     3.09 
##  5 f      Income benefit              1.23 
##  6 f      Cultural benefit            1.23 
##  7 f      Resource sustainability     2.47 
##  8 f      Leaders respected & trusted 1.23 
##  9 f      Interpersonal treatment     0.617
## 10 f      leaders decision-maker      1.23 
## # ... with 35 more rows
…
why_pe_df_gen2<-why_pe_df_gen2[!is.na(why_pe_df_gen2$Why_PJ3_fact),]#eliminate NAs 

why_pe_df_gen2_gm<-why_pe_df_gen2%>%
  pivot_wider(names_from=Gender, values_from=perc, values_fill = 0)

why_pe_df_gen2_gm

## # A tibble: 26 x 3
##    Why_PJ3_fact                    f     m
##    <fct>                       <dbl> <dbl>
##  1 Poor participation          4.32  3.09 
##  2 Participation               7.41  4.32 
##  3 Other                       1.85  3.70 
##  4 Poor management quality     3.09  1.85 
##  5 Income benefit              1.23  0.617
##  6 Cultural benefit            1.23  0.617
##  7 Resource sustainability     2.47  4.32 
##  8 Leaders respected & trusted 1.23  3.09 
##  9 Interpersonal treatment     0.617 0.617
## 10 leaders decision-maker      1.23  6.17 
## # ... with 16 more rows
…
